The system is: Windows - 10.0.22621 - AMD64
Compiling the C compiler identification source file "CMakeCCompilerId.c" succeeded.
Compiler: C:/Program Files/JetBrains/CLion 2023.1.1/bin/mingw/bin/gcc.exe 
Build flags: 
Id flags:  

The output was:
0


Compilation of the C compiler identification source "CMakeCCompilerId.c" produced "a.exe"

The C compiler identification is GNU, found in "C:/Magiq/GitHub/steganography/Steganography/cmake-build-debug/CMakeFiles/3.25.2/CompilerIdC/a.exe"

Detecting C compiler ABI info compiled with the following output:
Change Dir: C:/Magiq/GitHub/steganography/Steganography/cmake-build-debug/CMakeFiles/CMakeScratch/TryCompile-c7tfz3

Run Build Command(s):C:/Program Files/JetBrains/CLion 2023.1.1/bin/ninja/win/x64/ninja.exe cmTC_08dbe && [1/2] Building C object CMakeFiles/cmTC_08dbe.dir/CMakeCCompilerABI.c.obj
Using built-in specs.
COLLECT_GCC=C:\PROGRA~1\JetBrains\CLion 2023.1.1\bin\mingw\bin\gcc.exe
Target: x86_64-w64-mingw32
Configured with: ../gcc-11.2.0/configure --host=x86_64-w64-mingw32 --target=x86_64-w64-mingw32 --build=x86_64-alpine-linux-musl --prefix=/win --enable-checking=release --enable-fully-dynamic-string --enable-languages=c,c++ --enable-libatomic --enable-libgomp --enable-libstdcxx-filesystem-ts=yes --enable-libstdcxx-time=yes --enable-seh-exceptions --enable-shared --enable-static --enable-threads=posix --enable-version-specific-runtime-libs --disable-bootstrap --disable-graphite --disable-libada --disable-libstdcxx-pch --disable-libstdcxx-debug --disable-libquadmath --disable-lto --disable-nls --disable-multilib --disable-rpath --disable-symvers --disable-werror --disable-win32-registry --with-gnu-as --with-gnu-ld --with-system-libiconv --with-system-libz --with-gmp=/win/makedepends --with-mpfr=/win/makedepends --with-mpc=/win/makedepends
Thread model: posix
Supported LTO compression algorithms: zlib
gcc version 11.2.0 (GCC) 
COLLECT_GCC_OPTIONS='-fdiagnostics-color=always' '-v' '-o' 'CMakeFiles/cmTC_08dbe.dir/CMakeCCompilerABI.c.obj' '-c' '-mtune=generic' '-march=x86-64' '-dumpdir' 'CMakeFiles/cmTC_08dbe.dir/'
 C:/PROGRA~1/JetBrains/CLion 2023.1.1/bin/mingw/bin/../libexec/gcc/x86_64-w64-mingw32/11.2.0/cc1.exe -quiet -v -iprefix C:/PROGRA~1/JetBrains/CLion 2023.1.1/bin/mingw/bin/../lib/gcc/x86_64-w64-mingw32/11.2.0/ -D_REENTRANT C:/Program Files/JetBrains/CLion 2023.1.1/bin/cmake/win/x64/share/cmake-3.25/Modules/CMakeCCompilerABI.c -quiet -dumpdir CMakeFiles/cmTC_08dbe.dir/ -dumpbase CMakeCCompilerABI.c.c -dumpbase-ext .c -mtune=generic -march=x86-64 -version -fdiagnostics-color=always -o C:\Users\Owner\AppData\Local\Temp\cc5rXG1H.s
GNU C17 (GCC) version 11.2.0 (x86_64-w64-mingw32)
	compiled by GNU C version 11.2.0, GMP version 6.2.1, MPFR version 4.1.0, MPC version 1.2.1, isl version none
GGC heuristics: --param ggc-min-expand=100 --param ggc-min-heapsize=131072
ignoring duplicate directory "C:/PROGRA~1/JetBrains/CLion 2023.1.1/bin/mingw/lib/gcc/../../lib/gcc/x86_64-w64-mingw32/11.2.0/include"
ignoring nonexistent directory "/win/include"
ignoring duplicate directory "C:/PROGRA~1/JetBrains/CLion 2023.1.1/bin/mingw/lib/gcc/../../include"
ignoring duplicate directory "C:/PROGRA~1/JetBrains/CLion 2023.1.1/bin/mingw/lib/gcc/../../lib/gcc/x86_64-w64-mingw32/11.2.0/include-fixed"
ignoring duplicate directory "C:/PROGRA~1/JetBrains/CLion 2023.1.1/bin/mingw/lib/gcc/../../lib/gcc/x86_64-w64-mingw32/11.2.0/../../../../x86_64-w64-mingw32/include"
#include "..." search starts here:
#include <...> search starts here:
 C:/PROGRA~1/JetBrains/CLion 2023.1.1/bin/mingw/bin/../lib/gcc/x86_64-w64-mingw32/11.2.0/include
 C:/PROGRA~1/JetBrains/CLion 2023.1.1/bin/mingw/bin/../lib/gcc/x86_64-w64-mingw32/11.2.0/../../../../include
 C:/PROGRA~1/JetBrains/CLion 2023.1.1/bin/mingw/bin/../lib/gcc/x86_64-w64-mingw32/11.2.0/include-fixed
 C:/PROGRA~1/JetBrains/CLion 2023.1.1/bin/mingw/bin/../lib/gcc/x86_64-w64-mingw32/11.2.0/../../../../x86_64-w64-mingw32/include
 /mingw/include
End of search list.
GNU C17 (GCC) version 11.2.0 (x86_64-w64-mingw32)
	compiled by GNU C version 11.2.0, GMP version 6.2.1, MPFR version 4.1.0, MPC version 1.2.1, isl version none
GGC heuristics: --param ggc-min-expand=100 --param ggc-min-heapsize=131072
Compiler executable checksum: 23424b72d090e8b977a96775bde79257
COLLECT_GCC_OPTIONS='-fdiagnostics-color=always' '-v' '-o' 'CMakeFiles/cmTC_08dbe.dir/CMakeCCompilerABI.c.obj' '-c' '-mtune=generic' '-march=x86-64' '-dumpdir' 'CMakeFiles/cmTC_08dbe.dir/'
 as -v -o CMakeFiles/cmTC_08dbe.dir/CMakeCCompilerABI.c.obj C:\Users\Owner\AppData\Local\Temp\cc5rXG1H.s
GNU assembler version 2.37 (x86_64-w64-mingw32) using BFD version (GNU Binutils) 2.37
COMPILER_PATH=C:/PROGRA~1/JetBrains/CLion 2023.1.1/bin/mingw/bin/../libexec/gcc/x86_64-w64-mingw32/11.2.0/;C:/PROGRA~1/JetBrains/CLion 2023.1.1/bin/mingw/bin/../libexec/gcc/
LIBRARY_PATH=C:/PROGRA~1/JetBrains/CLion 2023.1.1/bin/mingw/bin/../lib/gcc/x86_64-w64-mingw32/11.2.0/;C:/PROGRA~1/JetBrains/CLion 2023.1.1/bin/mingw/bin/../lib/gcc/;C:/PROGRA~1/JetBrains/CLion 2023.1.1/bin/mingw/bin/../lib/gcc/x86_64-w64-mingw32/11.2.0/../../../../x86_64-w64-mingw32/lib/../lib/;C:/PROGRA~1/JetBrains/CLion 2023.1.1/bin/mingw/bin/../lib/gcc/x86_64-w64-mingw32/11.2.0/../../../../lib/;/mingw/lib/../lib/;C:/PROGRA~1/JetBrains/CLion 2023.1.1/bin/mingw/bin/../lib/gcc/x86_64-w64-mingw32/11.2.0/../../../../x86_64-w64-mingw32/lib/;C:/PROGRA~1/JetBrains/CLion 2023.1.1/bin/mingw/bin/../lib/gcc/x86_64-w64-mingw32/11.2.0/../../../;/mingw/lib/
COLLECT_GCC_OPTIONS='-fdiagnostics-color=always' '-v' '-o' 'CMakeFiles/cmTC_08dbe.dir/CMakeCCompilerABI.c.obj' '-c' '-mtune=generic' '-march=x86-64' '-dumpdir' 'CMakeFiles/cmTC_08dbe.dir/CMakeCCompilerABI.c.'
[2/2] Linking C executable cmTC_08dbe.exe
Using built-in specs.
COLLECT_GCC=C:\PROGRA~1\JetBrains\CLion 2023.1.1\bin\mingw\bin\gcc.exe
COLLECT_LTO_WRAPPER=C:/PROGRA~1/JetBrains/CLion\ 2023.1.1/bin/mingw/bin/../libexec/gcc/x86_64-w64-mingw32/11.2.0/lto-wrapper.exe
Target: x86_64-w64-mingw32
Configured with: ../gcc-11.2.0/configure --host=x86_64-w64-mingw32 --target=x86_64-w64-mingw32 --build=x86_64-alpine-linux-musl --prefix=/win --enable-checking=release --enable-fully-dynamic-string --enable-languages=c,c++ --enable-libatomic --enable-libgomp --enable-libstdcxx-filesystem-ts=yes --enable-libstdcxx-time=yes --enable-seh-exceptions --enable-shared --enable-static --enable-threads=posix --enable-version-specific-runtime-libs --disable-bootstrap --disable-graphite --disable-libada --disable-libstdcxx-pch --disable-libstdcxx-debug --disable-libquadmath --disable-lto --disable-nls --disable-multilib --disable-rpath --disable-symvers --disable-werror --disable-win32-registry --with-gnu-as --with-gnu-ld --with-system-libiconv --with-system-libz --with-gmp=/win/makedepends --with-mpfr=/win/makedepends --with-mpc=/win/makedepends
Thread model: posix
Supported LTO compression algorithms: zlib
gcc version 11.2.0 (GCC) 
COMPILER_PATH=C:/PROGRA~1/JetBrains/CLion 2023.1.1/bin/mingw/bin/../libexec/gcc/x86_64-w64-mingw32/11.2.0/;C:/PROGRA~1/JetBrains/CLion 2023.1.1/bin/mingw/bin/../libexec/gcc/
LIBRARY_PATH=C:/PROGRA~1/JetBrains/CLion 2023.1.1/bin/mingw/bin/../lib/gcc/x86_64-w64-mingw32/11.2.0/;C:/PROGRA~1/JetBrains/CLion 2023.1.1/bin/mingw/bin/../lib/gcc/;C:/PROGRA~1/JetBrains/CLion 2023.1.1/bin/mingw/bin/../lib/gcc/x86_64-w64-mingw32/11.2.0/../../../../x86_64-w64-mingw32/lib/../lib/;C:/PROGRA~1/JetBrains/CLion 2023.1.1/bin/mingw/bin/../lib/gcc/x86_64-w64-mingw32/11.2.0/../../../../lib/;/mingw/lib/../lib/;C:/PROGRA~1/JetBrains/CLion 2023.1.1/bin/mingw/bin/../lib/gcc/x86_64-w64-mingw32/11.2.0/../../../../x86_64-w64-mingw32/lib/;C:/PROGRA~1/JetBrains/CLion 2023.1.1/bin/mingw/bin/../lib/gcc/x86_64-w64-mingw32/11.2.0/../../../;/mingw/lib/
COLLECT_GCC_OPTIONS='-v' '-o' 'cmTC_08dbe.exe' '-mtune=generic' '-march=x86-64' '-dumpdir' 'cmTC_08dbe.'
 C:/PROGRA~1/JetBrains/CLion 2023.1.1/bin/mingw/bin/../libexec/gcc/x86_64-w64-mingw32/11.2.0/collect2.exe -m i386pep -Bdynamic -o cmTC_08dbe.exe C:/PROGRA~1/JetBrains/CLion 2023.1.1/bin/mingw/bin/../lib/gcc/x86_64-w64-mingw32/11.2.0/../../../../x86_64-w64-mingw32/lib/../lib/crt2.o C:/PROGRA~1/JetBrains/CLion 2023.1.1/bin/mingw/bin/../lib/gcc/x86_64-w64-mingw32/11.2.0/crtbegin.o -LC:/PROGRA~1/JetBrains/CLion 2023.1.1/bin/mingw/bin/../lib/gcc/x86_64-w64-mingw32/11.2.0 -LC:/PROGRA~1/JetBrains/CLion 2023.1.1/bin/mingw/bin/../lib/gcc -LC:/PROGRA~1/JetBrains/CLion 2023.1.1/bin/mingw/bin/../lib/gcc/x86_64-w64-mingw32/11.2.0/../../../../x86_64-w64-mingw32/lib/../lib -LC:/PROGRA~1/JetBrains/CLion 2023.1.1/bin/mingw/bin/../lib/gcc/x86_64-w64-mingw32/11.2.0/../../../../lib -L/mingw/lib/../lib -LC:/PROGRA~1/JetBrains/CLion 2023.1.1/bin/mingw/bin/../lib/gcc/x86_64-w64-mingw32/11.2.0/../../../../x86_64-w64-mingw32/lib -LC:/PROGRA~1/JetBrains/CLion 2023.1.1/bin/mingw/bin/../lib/gcc/x86_64-w64-mingw32/11.2.0/../../.. -L/mingw/lib CMakeFiles/cmTC_08dbe.dir/CMakeCCompilerABI.c.obj --out-implib libcmTC_08dbe.dll.a --major-image-version 0 --minor-image-version 0 -lmingw32 -lgcc -lgcc_eh -lmoldname -lmingwex -lmsvcrt -lkernel32 -lpthread -ladvapi32 -lshell32 -luser32 -lkernel32 -liconv -lmingw32 -lgcc -lgcc_eh -lmoldname -lmingwex -lmsvcrt -lkernel32 C:/PROGRA~1/JetBrains/CLion 2023.1.1/bin/mingw/bin/../lib/gcc/x86_64-w64-mingw32/11.2.0/../../../../x86_64-w64-mingw32/lib/../lib/default-manifest.o C:/PROGRA~1/JetBrains/CLion 2023.1.1/bin/mingw/bin/../lib/gcc/x86_64-w64-mingw32/11.2.0/crtend.o
COLLECT_GCC_OPTIONS='-v' '-o' 'cmTC_08dbe.exe' '-mtune=generic' '-march=x86-64' '-dumpdir' 'cmTC_08dbe.'



Parsed C implicit include dir info from above output: rv=done
  found start of include info
  found start of implicit include info
    add: [C:/PROGRA~1/JetBrains/CLion 2023.1.1/bin/mingw/bin/../lib/gcc/x86_64-w64-mingw32/11.2.0/include]
    add: [C:/PROGRA~1/JetBrains/CLion 2023.1.1/bin/mingw/bin/../lib/gcc/x86_64-w64-mingw32/11.2.0/../../../../include]
    add: [C:/PROGRA~1/JetBrains/CLion 2023.1.1/bin/mingw/bin/../lib/gcc/x86_64-w64-mingw32/11.2.0/include-fixed]
    add: [C:/PROGRA~1/JetBrains/CLion 2023.1.1/bin/mingw/bin/../lib/gcc/x86_64-w64-mingw32/11.2.0/../../../../x86_64-w64-mingw32/include]
    add: [/mingw/include]
  end of search list found
  collapse include dir [C:/PROGRA~1/JetBrains/CLion 2023.1.1/bin/mingw/bin/../lib/gcc/x86_64-w64-mingw32/11.2.0/include] ==> [C:/Program Files/JetBrains/CLion 2023.1.1/bin/mingw/lib/gcc/x86_64-w64-mingw32/11.2.0/include]
  collapse include dir [C:/PROGRA~1/JetBrains/CLion 2023.1.1/bin/mingw/bin/../lib/gcc/x86_64-w64-mingw32/11.2.0/../../../../include] ==> [C:/Program Files/JetBrains/CLion 2023.1.1/bin/mingw/include]
  collapse include dir [C:/PROGRA~1/JetBrains/CLion 2023.1.1/bin/mingw/bin/../lib/gcc/x86_64-w64-mingw32/11.2.0/include-fixed] ==> [C:/Program Files/JetBrains/CLion 2023.1.1/bin/mingw/lib/gcc/x86_64-w64-mingw32/11.2.0/include-fixed]
  collapse include dir [C:/PROGRA~1/JetBrains/CLion 2023.1.1/bin/mingw/bin/../lib/gcc/x86_64-w64-mingw32/11.2.0/../../../../x86_64-w64-mingw32/include] ==> [C:/Program Files/JetBrains/CLion 2023.1.1/bin/mingw/x86_64-w64-mingw32/include]
  collapse include dir [/mingw/include] ==> [/MinGW/include]
  implicit include dirs: [C:/Program Files/JetBrains/CLion 2023.1.1/bin/mingw/lib/gcc/x86_64-w64-mingw32/11.2.0/include;C:/Program Files/JetBrains/CLion 2023.1.1/bin/mingw/include;C:/Program Files/JetBrains/CLion 2023.1.1/bin/mingw/lib/gcc/x86_64-w64-mingw32/11.2.0/include-fixed;C:/Program Files/JetBrains/CLion 2023.1.1/bin/mingw/x86_64-w64-mingw32/include;/MinGW/include]


Parsed C implicit link information from above output:
  link line regex: [^( *|.*[/\])(ld\.exe|CMAKE_LINK_STARTFILE-NOTFOUND|([^/\]+-)?ld|collect2)[^/\]*( |$)]
  ignore line: [Change Dir: C:/Magiq/GitHub/steganography/Steganography/cmake-build-debug/CMakeFiles/CMakeScratch/TryCompile-c7tfz3]
  ignore line: []
  ignore line: [Run Build Command(s):C:/Program Files/JetBrains/CLion 2023.1.1/bin/ninja/win/x64/ninja.exe cmTC_08dbe && [1/2] Building C object CMakeFiles/cmTC_08dbe.dir/CMakeCCompilerABI.c.obj]
  ignore line: [Using built-in specs.]
  ignore line: [COLLECT_GCC=C:\PROGRA~1\JetBrains\CLion 2023.1.1\bin\mingw\bin\gcc.exe]
  ignore line: [Target: x86_64-w64-mingw32]
  ignore line: [Configured with: ../gcc-11.2.0/configure --host=x86_64-w64-mingw32 --target=x86_64-w64-mingw32 --build=x86_64-alpine-linux-musl --prefix=/win --enable-checking=release --enable-fully-dynamic-string --enable-languages=c,c++ --enable-libatomic --enable-libgomp --enable-libstdcxx-filesystem-ts=yes --enable-libstdcxx-time=yes --enable-seh-exceptions --enable-shared --enable-static --enable-threads=posix --enable-version-specific-runtime-libs --disable-bootstrap --disable-graphite --disable-libada --disable-libstdcxx-pch --disable-libstdcxx-debug --disable-libquadmath --disable-lto --disable-nls --disable-multilib --disable-rpath --disable-symvers --disable-werror --disable-win32-registry --with-gnu-as --with-gnu-ld --with-system-libiconv --with-system-libz --with-gmp=/win/makedepends --with-mpfr=/win/makedepends --with-mpc=/win/makedepends]
  ignore line: [Thread model: posix]
  ignore line: [Supported LTO compression algorithms: zlib]
  ignore line: [gcc version 11.2.0 (GCC) ]
  ignore line: [COLLECT_GCC_OPTIONS='-fdiagnostics-color=always' '-v' '-o' 'CMakeFiles/cmTC_08dbe.dir/CMakeCCompilerABI.c.obj' '-c' '-mtune=generic' '-march=x86-64' '-dumpdir' 'CMakeFiles/cmTC_08dbe.dir/']
  ignore line: [ C:/PROGRA~1/JetBrains/CLion 2023.1.1/bin/mingw/bin/../libexec/gcc/x86_64-w64-mingw32/11.2.0/cc1.exe -quiet -v -iprefix C:/PROGRA~1/JetBrains/CLion 2023.1.1/bin/mingw/bin/../lib/gcc/x86_64-w64-mingw32/11.2.0/ -D_REENTRANT C:/Program Files/JetBrains/CLion 2023.1.1/bin/cmake/win/x64/share/cmake-3.25/Modules/CMakeCCompilerABI.c -quiet -dumpdir CMakeFiles/cmTC_08dbe.dir/ -dumpbase CMakeCCompilerABI.c.c -dumpbase-ext .c -mtune=generic -march=x86-64 -version -fdiagnostics-color=always -o C:\Users\Owner\AppData\Local\Temp\cc5rXG1H.s]
  ignore line: [GNU C17 (GCC) version 11.2.0 (x86_64-w64-mingw32)]
  ignore line: [	compiled by GNU C version 11.2.0  GMP version 6.2.1  MPFR version 4.1.0  MPC version 1.2.1  isl version none]
  ignore line: [GGC heuristics: --param ggc-min-expand=100 --param ggc-min-heapsize=131072]
  ignore line: [ignoring duplicate directory "C:/PROGRA~1/JetBrains/CLion 2023.1.1/bin/mingw/lib/gcc/../../lib/gcc/x86_64-w64-mingw32/11.2.0/include"]
  ignore line: [ignoring nonexistent directory "/win/include"]
  ignore line: [ignoring duplicate directory "C:/PROGRA~1/JetBrains/CLion 2023.1.1/bin/mingw/lib/gcc/../../include"]
  ignore line: [ignoring duplicate directory "C:/PROGRA~1/JetBrains/CLion 2023.1.1/bin/mingw/lib/gcc/../../lib/gcc/x86_64-w64-mingw32/11.2.0/include-fixed"]
  ignore line: [ignoring duplicate directory "C:/PROGRA~1/JetBrains/CLion 2023.1.1/bin/mingw/lib/gcc/../../lib/gcc/x86_64-w64-mingw32/11.2.0/../../../../x86_64-w64-mingw32/include"]
  ignore line: [#include "..." search starts here:]
  ignore line: [#include <...> search starts here:]
  ignore line: [ C:/PROGRA~1/JetBrains/CLion 2023.1.1/bin/mingw/bin/../lib/gcc/x86_64-w64-mingw32/11.2.0/include]
  ignore line: [ C:/PROGRA~1/JetBrains/CLion 2023.1.1/bin/mingw/bin/../lib/gcc/x86_64-w64-mingw32/11.2.0/../../../../include]
  ignore line: [ C:/PROGRA~1/JetBrains/CLion 2023.1.1/bin/mingw/bin/../lib/gcc/x86_64-w64-mingw32/11.2.0/include-fixed]
  ignore line: [ C:/PROGRA~1/JetBrains/CLion 2023.1.1/bin/mingw/bin/../lib/gcc/x86_64-w64-mingw32/11.2.0/../../../../x86_64-w64-mingw32/include]
  ignore line: [ /mingw/include]
  ignore line: [End of search list.]
  ignore line: [GNU C17 (GCC) version 11.2.0 (x86_64-w64-mingw32)]
  ignore line: [	compiled by GNU C version 11.2.0  GMP version 6.2.1  MPFR version 4.1.0  MPC version 1.2.1  isl version none]
  ignore line: [GGC heuristics: --param ggc-min-expand=100 --param ggc-min-heapsize=131072]
  ignore line: [Compiler executable checksum: 23424b72d090e8b977a96775bde79257]
  ignore line: [COLLECT_GCC_OPTIONS='-fdiagnostics-color=always' '-v' '-o' 'CMakeFiles/cmTC_08dbe.dir/CMakeCCompilerABI.c.obj' '-c' '-mtune=generic' '-march=x86-64' '-dumpdir' 'CMakeFiles/cmTC_08dbe.dir/']
  ignore line: [ as -v -o CMakeFiles/cmTC_08dbe.dir/CMakeCCompilerABI.c.obj C:\Users\Owner\AppData\Local\Temp\cc5rXG1H.s]
  ignore line: [GNU assembler version 2.37 (x86_64-w64-mingw32) using BFD version (GNU Binutils) 2.37]
  ignore line: [COMPILER_PATH=C:/PROGRA~1/JetBrains/CLion 2023.1.1/bin/mingw/bin/../libexec/gcc/x86_64-w64-mingw32/11.2.0/]
  ignore line: [C:/PROGRA~1/JetBrains/CLion 2023.1.1/bin/mingw/bin/../libexec/gcc/]
  ignore line: [LIBRARY_PATH=C:/PROGRA~1/JetBrains/CLion 2023.1.1/bin/mingw/bin/../lib/gcc/x86_64-w64-mingw32/11.2.0/]
  ignore line: [C:/PROGRA~1/JetBrains/CLion 2023.1.1/bin/mingw/bin/../lib/gcc/]
  ignore line: [C:/PROGRA~1/JetBrains/CLion 2023.1.1/bin/mingw/bin/../lib/gcc/x86_64-w64-mingw32/11.2.0/../../../../x86_64-w64-mingw32/lib/../lib/]
  ignore line: [C:/PROGRA~1/JetBrains/CLion 2023.1.1/bin/mingw/bin/../lib/gcc/x86_64-w64-mingw32/11.2.0/../../../../lib/]
  ignore line: [/mingw/lib/../lib/]
  ignore line: [C:/PROGRA~1/JetBrains/CLion 2023.1.1/bin/mingw/bin/../lib/gcc/x86_64-w64-mingw32/11.2.0/../../../../x86_64-w64-mingw32/lib/]
  ignore line: [C:/PROGRA~1/JetBrains/CLion 2023.1.1/bin/mingw/bin/../lib/gcc/x86_64-w64-mingw32/11.2.0/../../../]
  ignore line: [/mingw/lib/]
  ignore line: [COLLECT_GCC_OPTIONS='-fdiagnostics-color=always' '-v' '-o' 'CMakeFiles/cmTC_08dbe.dir/CMakeCCompilerABI.c.obj' '-c' '-mtune=generic' '-march=x86-64' '-dumpdir' 'CMakeFiles/cmTC_08dbe.dir/CMakeCCompilerABI.c.']
  ignore line: [[2/2] Linking C executable cmTC_08dbe.exe]
  ignore line: [Using built-in specs.]
  ignore line: [COLLECT_GCC=C:\PROGRA~1\JetBrains\CLion 2023.1.1\bin\mingw\bin\gcc.exe]
  ignore line: [COLLECT_LTO_WRAPPER=C:/PROGRA~1/JetBrains/CLion\ 2023.1.1/bin/mingw/bin/../libexec/gcc/x86_64-w64-mingw32/11.2.0/lto-wrapper.exe]
  ignore line: [Target: x86_64-w64-mingw32]
  ignore line: [Configured with: ../gcc-11.2.0/configure --host=x86_64-w64-mingw32 --target=x86_64-w64-mingw32 --build=x86_64-alpine-linux-musl --prefix=/win --enable-checking=release --enable-fully-dynamic-string --enable-languages=c,c++ --enable-libatomic --enable-libgomp --enable-libstdcxx-filesystem-ts=yes --enable-libstdcxx-time=yes --enable-seh-exceptions --enable-shared --enable-static --enable-threads=posix --enable-version-specific-runtime-libs --disable-bootstrap --disable-graphite --disable-libada --disable-libstdcxx-pch --disable-libstdcxx-debug --disable-libquadmath --disable-lto --disable-nls --disable-multilib --disable-rpath --disable-symvers --disable-werror --disable-win32-registry --with-gnu-as --with-gnu-ld --with-system-libiconv --with-system-libz --with-gmp=/win/makedepends --with-mpfr=/win/makedepends --with-mpc=/win/makedepends]
  ignore line: [Thread model: posix]
  ignore line: [Supported LTO compression algorithms: zlib]
  ignore line: [gcc version 11.2.0 (GCC) ]
  ignore line: [COMPILER_PATH=C:/PROGRA~1/JetBrains/CLion 2023.1.1/bin/mingw/bin/../libexec/gcc/x86_64-w64-mingw32/11.2.0/]
  ignore line: [C:/PROGRA~1/JetBrains/CLion 2023.1.1/bin/mingw/bin/../libexec/gcc/]
  ignore line: [LIBRARY_PATH=C:/PROGRA~1/JetBrains/CLion 2023.1.1/bin/mingw/bin/../lib/gcc/x86_64-w64-mingw32/11.2.0/]
  ignore line: [C:/PROGRA~1/JetBrains/CLion 2023.1.1/bin/mingw/bin/../lib/gcc/]
  ignore line: [C:/PROGRA~1/JetBrains/CLion 2023.1.1/bin/mingw/bin/../lib/gcc/x86_64-w64-mingw32/11.2.0/../../../../x86_64-w64-mingw32/lib/../lib/]
  ignore line: [C:/PROGRA~1/JetBrains/CLion 2023.1.1/bin/mingw/bin/../lib/gcc/x86_64-w64-mingw32/11.2.0/../../../../lib/]
  ignore line: [/mingw/lib/../lib/]
  ignore line: [C:/PROGRA~1/JetBrains/CLion 2023.1.1/bin/mingw/bin/../lib/gcc/x86_64-w64-mingw32/11.2.0/../../../../x86_64-w64-mingw32/lib/]
  ignore line: [C:/PROGRA~1/JetBrains/CLion 2023.1.1/bin/mingw/bin/../lib/gcc/x86_64-w64-mingw32/11.2.0/../../../]
  ignore line: [/mingw/lib/]
  ignore line: [COLLECT_GCC_OPTIONS='-v' '-o' 'cmTC_08dbe.exe' '-mtune=generic' '-march=x86-64' '-dumpdir' 'cmTC_08dbe.']
  ignore line: [ C:/PROGRA~1/JetBrains/CLion 2023.1.1/bin/mingw/bin/../libexec/gcc/x86_64-w64-mingw32/11.2.0/collect2.exe -m i386pep -Bdynamic -o cmTC_08dbe.exe C:/PROGRA~1/JetBrains/CLion 2023.1.1/bin/mingw/bin/../lib/gcc/x86_64-w64-mingw32/11.2.0/../../../../x86_64-w64-mingw32/lib/../lib/crt2.o C:/PROGRA~1/JetBrains/CLion 2023.1.1/bin/mingw/bin/../lib/gcc/x86_64-w64-mingw32/11.2.0/crtbegin.o -LC:/PROGRA~1/JetBrains/CLion 2023.1.1/bin/mingw/bin/../lib/gcc/x86_64-w64-mingw32/11.2.0 -LC:/PROGRA~1/JetBrains/CLion 2023.1.1/bin/mingw/bin/../lib/gcc -LC:/PROGRA~1/JetBrains/CLion 2023.1.1/bin/mingw/bin/../lib/gcc/x86_64-w64-mingw32/11.2.0/../../../../x86_64-w64-mingw32/lib/../lib -LC:/PROGRA~1/JetBrains/CLion 2023.1.1/bin/mingw/bin/../lib/gcc/x86_64-w64-mingw32/11.2.0/../../../../lib -L/mingw/lib/../lib -LC:/PROGRA~1/JetBrains/CLion 2023.1.1/bin/mingw/bin/../lib/gcc/x86_64-w64-mingw32/11.2.0/../../../../x86_64-w64-mingw32/lib -LC:/PROGRA~1/JetBrains/CLion 2023.1.1/bin/mingw/bin/../lib/gcc/x86_64-w64-mingw32/11.2.0/../../.. -L/mingw/lib CMakeFiles/cmTC_08dbe.dir/CMakeCCompilerABI.c.obj --out-implib libcmTC_08dbe.dll.a --major-image-version 0 --minor-image-version 0 -lmingw32 -lgcc -lgcc_eh -lmoldname -lmingwex -lmsvcrt -lkernel32 -lpthread -ladvapi32 -lshell32 -luser32 -lkernel32 -liconv -lmingw32 -lgcc -lgcc_eh -lmoldname -lmingwex -lmsvcrt -lkernel32 C:/PROGRA~1/JetBrains/CLion 2023.1.1/bin/mingw/bin/../lib/gcc/x86_64-w64-mingw32/11.2.0/../../../../x86_64-w64-mingw32/lib/../lib/default-manifest.o C:/PROGRA~1/JetBrains/CLion 2023.1.1/bin/mingw/bin/../lib/gcc/x86_64-w64-mingw32/11.2.0/crtend.o]
  ignore line: [COLLECT_GCC_OPTIONS='-v' '-o' 'cmTC_08dbe.exe' '-mtune=generic' '-march=x86-64' '-dumpdir' 'cmTC_08dbe.']
  ignore line: []
  ignore line: []
  implicit libs: []
  implicit objs: []
  implicit dirs: []
  implicit fwks: []


